Getting started with the MRFtools package • MRFtools
…
phylo_df

# A tibble: 120 × 4
   species weight truth     y
   <fct>    <dbl> <dbl> <dbl>
 1 sp_11        1 0.563 0.434
 2 sp_11        1 0.563 0.793
 3 sp_11        1 0.563 0.483
 4 sp_11        1 0.563 0.266
 5 sp_11        1 0.563 0.586
 6 sp_11        1 0.563 0.617
 7 sp_11        1 0.563 0.585
 8 sp_11        1 0.563 0.699
 9 sp_11        1 0.563 0.550
10 sp_11        1 0.563 0.387
# ℹ 110 more rows
…
