…
phylo_df <- tibble(
  species = rep(species_names, times = n_obs),
  mu1 = rep(mu1, times = n_obs),
  mu2 = rep(mu2, times = n_obs),
  y1 = mu1 + e1,
  y2 = mu2 + e2
)

phylo_df
```

    # A tibble: 100 × 5
       species     mu1     mu2      y1     y2
       <chr>     <dbl>   <dbl>   <dbl>  <dbl>
     1 sp_10    1.60   -0.580   1.17   -0.781
     2 sp_12    1.12   -0.728   0.508  -0.672
     3 sp_3     1.88    0.0687  1.67   -0.614
     4 sp_2    -0.0877  0.112   0.0950  0.613
     5 sp_7    -0.213  -0.177  -0.170  -0.379
     6 sp_4     0.0419  0.975   0.218   1.57
     7 sp_14   -0.0167 -0.974  -0.580  -1.24
     8 sp_18   -1.09    1.03   -1.02    0.431
     9 sp_16   -1.03    1.33   -0.882   1.29
    10 sp_15    0.667   2.06    0.154   2.13
    # ℹ 90 more rows
…
